<svg xmlns="http://www.w3.org/2000/svg" width="167" height="40" viewBox="0 0 167 40">
  <path fill="#FFF" fill-rule="evenodd" d="M88.6006779,27.5346756 C86.8213231,27.5346756 85.4308097,27.016046 84.4291376,25.9787868 C83.4274656,24.9415277 82.9261062,23.5133338 82.9250595,21.6942052 C82.9250595,19.8269294 83.3903084,18.3589617 84.3208063,17.2903021 C85.2513042,16.2216426 86.5277296,15.6873128 88.1500825,15.6873128 C89.659394,15.6873128 90.8515617,16.1457583 91.7265856,17.0626494 C92.6016094,17.9795404 93.0391214,19.240789 93.0391214,20.846395 L93.0391214,22.1589308 L85.4276697,22.1589308 C85.4622101,23.2694575 85.7620837,24.1225011 86.3272905,24.7180616 C86.8924973,25.3136221 87.6884969,25.6119257 88.7152893,25.6129724 C89.3483614,25.6171418 89.9800321,25.552922 90.599312,25.4214301 C91.2468148,25.2758911 91.878009,25.065493 92.4833347,24.7934225 L92.4833347,26.7606562 C91.911627,27.0365054 91.3069686,27.2380582 90.684093,27.3604035 C89.9966962,27.4842573 89.2990984,27.5426095 88.6006779,27.5346756 L88.6006779,27.5346756 Z M88.1500825,17.527375 C88.9277652,17.5252816 89.5374558,17.7681112 89.9791545,18.2558638 C90.4208532,18.7436163 90.6485059,19.4584983 90.6621127,20.4005096 L85.4622101,20.4005096 C85.5522245,19.462685 85.8295945,18.749373 86.2943201,18.2605738 C86.7590457,17.7717746 87.3776332,17.527375 88.1500825,17.527375 Z M101.606715,15.6873128 C102.012183,15.6800144 102.417317,15.7147401 102.815629,15.7909341 L102.578556,18.0549013 C102.226198,17.9713861 101.865212,17.9297543 101.503093,17.9308698 C100.530728,17.9308698 99.7457189,18.2480137 99.148065,18.8823013 C98.5504111,19.516589 98.2489675,20.3403255 98.2437341,21.3535111 L98.2437341,27.3290031 L95.8070647,27.3290031 L95.8070647,15.8929853 L97.7099277,15.8929853 L98.0239314,17.9088896 L98.1479629,17.9088896 C98.5015906,17.2540497 99.0111771,16.6964704 99.6316308,16.28549 C100.215652,15.8936892 100.903447,15.6853825 101.606715,15.6873128 Z M115.077477,21.5905839 C115.077477,23.4578598 114.598621,24.9153607 113.64091,25.9630866 C112.683198,27.0108126 111.349729,27.5341522 109.640501,27.5331056 C108.650421,27.5514167 107.673856,27.3013076 106.814467,26.8093268 C105.989737,26.3217244 105.3306,25.5974944 104.922595,24.7306218 C104.464774,23.7483504 104.238637,22.6740637 104.261617,21.5905839 C104.261617,19.7358683 104.737332,18.2883108 105.688764,17.2479116 C106.640195,16.2075124 107.980468,15.6873128 109.709582,15.6873128 C111.363336,15.6873128 112.671685,16.2195492 113.63463,17.2840221 C114.597574,18.3484949 115.078524,19.7840155 115.077477,21.5905839 Z M106.756377,21.5905839 L106.754807,21.5905839 C106.755853,20.324102 106.985599,19.353307 107.444045,18.6781989 C107.90249,18.0030907 108.641969,17.6655367 109.662482,17.6655367 C111.606165,17.6655367 112.578007,18.9738857 112.578007,21.5905839 C112.578007,24.2303091 111.612969,25.5501717 109.682892,25.5501717 C107.731882,25.5501717 106.756377,24.2303091 106.756377,21.5905839 Z M127.928082,27.3274331 L125.488272,27.3274331 L125.488272,20.2984584 C125.488272,19.4161077 125.31086,18.7577465 124.956036,18.3233746 C124.601212,17.8890027 124.038098,17.6718167 123.266696,17.6718167 C122.239903,17.6718167 121.488388,17.9753537 121.012148,18.5824277 C120.535909,19.1895017 120.298313,20.2058273 120.29936,21.6314044 L120.29936,27.3274331 L117.868971,27.3274331 L117.868971,15.8929853 L119.770263,15.8929853 L120.110958,17.3923534 L120.234989,17.3923534 C120.591975,16.8400263 121.102058,16.403592 121.702957,16.1363382 C122.364324,15.8342113 123.084446,15.6824655 123.811492,15.6920229 C126.554839,15.6920229 127.926512,17.0877697 127.926512,19.8792633 L127.926512,27.3337132 L127.928082,27.3274331 Z M133.738722,27.3274331 L131.308333,27.3274331 L131.308333,11.2410192 L133.738722,11.2410192 L133.738722,27.3274331 Z M137.067162,12.8644188 C137.042785,12.4952019 137.171714,12.132269 137.423556,11.8611767 C137.702041,11.6116106 138.069365,11.4848301 138.442498,11.5094925 C138.808679,11.4872538 139.168281,11.6141054 139.43946,11.8611767 C139.691302,12.132269 139.820232,12.4952019 139.795855,12.8644188 C139.815837,13.2254813 139.687039,13.5789681 139.43946,13.8425406 C139.169613,14.092269 138.809506,14.2210002 138.442498,14.1989349 C138.068525,14.2235935 137.700632,14.094916 137.423556,13.8425406 C137.175978,13.5789681 137.047179,13.2254813 137.067162,12.8644188 Z M139.646703,27.3274331 L137.211604,27.3274331 L137.211604,15.8929853 L139.646703,15.8929853 L139.646703,27.3274331 Z M153.173986,27.3274331 L150.734177,27.3274331 L150.734177,20.2984584 C150.734177,19.4161077 150.556764,18.7577465 150.20194,18.3233746 C149.847116,17.8890027 149.284002,17.6718167 148.5126,17.6718167 C147.485807,17.6718167 146.734292,17.9753537 146.258053,18.5824277 C145.781814,19.1895017 145.544217,20.2058273 145.545264,21.6314044 L145.545264,27.3274331 L143.114875,27.3274331 L143.114875,15.8929853 L145.017738,15.8929853 L145.358432,17.3923534 L145.482463,17.3923534 C145.839449,16.8400263 146.349532,16.403592 146.950431,16.1363382 C147.613826,15.8314516 148.336773,15.6780668 149.066817,15.6873128 C151.810163,15.6873128 153.181836,17.0830596 153.181836,19.8745533 L153.181836,27.3290031 L153.173986,27.3274331 Z M161.548467,27.5346756 C159.769112,27.5346756 158.378599,27.016046 157.376927,25.9787868 C156.375255,24.9415277 155.873895,23.5133338 155.872849,21.6942052 C155.872849,19.8269294 156.338097,18.3589617 157.268595,17.2903021 C158.199093,16.2216426 159.477612,15.6878362 161.104152,15.6888828 C162.613463,15.6888828 163.805631,16.1473284 164.680655,17.0642194 C165.555679,17.9811105 165.99319,19.242359 165.99319,20.847965 L165.99319,22.1605008 L158.373889,22.1605008 C158.408429,23.2710275 158.708303,24.1240711 159.273509,24.7196317 C159.838716,25.3151922 160.634716,25.6134958 161.661508,25.6145424 C162.29458,25.6187118 162.926251,25.554492 163.545531,25.4230001 C164.193057,25.2775434 164.824259,25.0671426 165.429554,24.7949926 L165.429554,26.7606562 C164.857878,27.0365854 164.25321,27.2381417 163.630312,27.3604035 C162.94343,27.484149 162.246363,27.5425008 161.548467,27.5346756 Z M161.104152,17.527375 C161.875554,17.5252816 162.482105,17.7681112 162.923803,18.2558638 C163.365502,18.7436163 163.593155,19.4584983 163.606762,20.4005096 L158.416279,20.4005096 C158.506294,19.462685 158.783664,18.749373 159.248389,18.2605738 C159.713115,17.7717746 160.331702,17.527375 161.104152,17.527375 Z M76.4016309,27.5346756 C74.6222761,27.5346756 73.2317627,27.016046 72.2300906,25.9787868 C71.2284186,24.9415277 70.7260125,23.5128104 70.7228725,21.6926352 C70.7228725,19.8253593 71.1881214,18.3573917 72.1186193,17.2887321 C73.0491172,16.2200726 74.3276359,15.6862661 75.9541755,15.6873128 C77.463487,15.6873128 78.6556547,16.1457583 79.5306786,17.0626494 C80.4057025,17.9795404 80.8432144,19.240789 80.8432144,20.846395 L80.8432144,22.1589308 L73.2349027,22.1589308 C73.2694431,23.2694575 73.5693168,24.1225011 74.1345236,24.7180616 C74.6997304,25.3136221 75.49573,25.6119257 76.5225223,25.6129724 C77.1555944,25.6171418 77.7872652,25.552922 78.406545,25.4214301 C79.0540478,25.2758911 79.6852421,25.065493 80.2905678,24.7934225 L80.2905678,26.7606562 C79.7188601,27.0365054 79.1142017,27.2380582 78.4913261,27.3604035 C77.8018667,27.4846539 77.1021472,27.5430077 76.4016309,27.5346756 Z M75.9573155,17.527375 C76.7287182,17.5252816 77.3352688,17.7681112 77.7769675,18.2558638 C78.2186661,18.7436163 78.4463189,19.4584983 78.4599257,20.4005096 L73.2694431,20.4005096 C73.3594576,19.462685 73.6368276,18.749373 74.1015532,18.2605738 C74.5662788,17.7717746 75.1848662,17.527375 75.9573155,17.527375 Z M65.5873406,27.3274331 L62.8994682,27.3274331 L60.3356273,18.3123844 C60.225726,17.9198797 60.0880876,17.3531029 59.9227123,16.612054 C59.757337,15.871005 59.6573791,15.3560388 59.6228387,15.0671553 C59.5537579,15.5078073 59.4417632,16.0798175 59.2868547,16.783186 C59.1319461,17.4865545 59.0026812,18.0098941 58.89906,18.3532049 L56.3964498,27.3274331 L53.7085774,27.3274331 L51.7539039,19.7599419 L49.7694,12.2128609 L52.2924204,12.2128609 L54.4527664,21.0206671 C54.7573766,22.2553975 54.9999864,23.5046025 55.1796852,24.7635922 C55.2550461,24.1774518 55.3686108,23.5227539 55.5203793,22.7994985 C55.6721478,22.0762431 55.8097861,21.4901027 55.9332942,21.0410773 L58.3935139,12.2112909 L60.8443134,12.2112909 L63.3673338,21.0818978 C63.690644,22.2937252 63.944873,23.5229357 64.128793,24.7635922 C64.2871329,23.4915099 64.5358244,22.2323125 64.872982,20.9955468 L67.0239079,12.2034408 L69.526518,12.2034408 L65.5873406,27.3274331 Z M24.6129868,11.7041748 C29.4587362,16.5513478 29.4579669,24.4088954 24.6112684,29.2551193 C19.7645699,34.1013433 11.9070223,34.1013433 7.06032378,29.2551193 C2.21362527,24.4088954 2.21285591,16.5513478 7.05860531,11.7041748 C9.38520089,9.37394613 12.542923,8.06453143 15.8357961,8.06453143 C19.1286691,8.06453143 22.2863913,9.37394613 24.6129868,11.7041748 Z M12.3291588,38.5797587 C12.4359201,36.9893295 12.4861607,36.1948999 12.5976321,34.6044708 L14.254002,34.8132833 C14.1645109,36.4429629 14.1221204,37.2578027 14.0341994,38.8953325 C13.4491056,38.8168315 12.8807588,38.7121636 12.3291588,38.5813287 L12.3291588,38.5797587 Z M17.5824421,39.025644 C17.3029788,37.2892031 17.161677,36.4194126 16.8822137,34.6845417 L18.7662364,34.4066484 C19.0896603,36.1729197 19.2498022,37.0552703 19.5716561,38.8231116 C18.9080614,38.9214995 18.2460368,38.9884869 17.5855822,39.024074 L17.5824421,39.025644 Z M22.5437019,38.1778338 C21.8717338,36.4084225 21.5326097,35.5260719 20.8465115,33.7723607 C21.6315209,33.4693471 22.0177456,33.3264754 22.7807748,33.0423019 C23.5076935,34.8242734 23.8656578,35.7207542 24.5784464,37.5168559 C23.9143284,37.7649188 23.2376503,37.9878615 22.5374218,38.1778338 L22.5437019,38.1778338 Z M27.5520623,36.1682096 C26.4797393,34.4898594 25.9412228,33.6561793 24.8469197,31.9998094 C25.5597082,31.5288037 25.9129625,31.2885908 26.616331,30.8238652 C27.7640148,32.4849452 28.3323617,33.3233353 29.4659153,35.0001155 C28.8441878,35.4187872 28.2057135,35.8081519 27.5504922,36.1682096 L27.5520623,36.1682096 Z M31.9120048,33.0878325 C30.4817176,31.5931745 29.773639,30.8411354 28.3402118,29.3527575 L29.9212208,27.8251291 C31.3954686,29.2632664 32.1270974,29.9839051 33.6123353,31.4079122 C33.0680621,32.0013794 32.5012852,32.5613528 31.9120048,33.0878325 Z M35.827632,28.6446789 C34.0142601,27.569216 33.1319095,27.0055792 31.3624982,25.8877257 C31.8539141,25.1372567 32.1019771,24.7651622 32.596533,24.0146932 C34.3957747,25.0477656 35.2985356,25.5595918 37.159008,26.5267234 C36.746093,27.2520722 36.3017777,27.9617207 35.826062,28.6431089 L35.827632,28.6446789 Z M38.7227469,23.2862044 C36.6267716,22.755538 35.6219595,22.4478143 33.6264654,21.8150967 C33.9404692,20.9908367 34.0974711,20.5826318 34.4114749,19.7536618 C36.406969,20.2921783 37.4164911,20.5480914 39.5250265,20.9704265 C39.296413,21.7552571 39.0286513,22.5281504 38.7227469,23.2862044 Z M40.2362451,17.6498365 C38.0193784,17.6498365 36.9580456,17.5964558 34.8605003,17.4708543 C34.9656916,16.6560145 35.0175022,16.2462395 35.1195534,15.4298297 C37.1904084,15.4675102 38.236041,15.4737902 40.4120872,15.4047094 C40.396393,16.1573932 40.3376832,16.9085643 40.2362451,17.6545465 L40.2362451,17.6498365 Z M40.2064147,12.2725217 C38.0994493,12.7231171 37.075797,12.9177994 35.0614627,13.2757638 C34.9421413,12.5425649 34.8809106,12.1767505 34.7568791,11.4482617 C36.7288228,11.0353468 37.7289249,10.8202542 39.7809396,10.3256982 C39.9623317,10.9649245 40.1049398,11.6145256 40.2079848,12.2709516 L40.2064147,12.2725217 Z M38.8514884,7.90629905 C36.9439154,8.64734798 36.0081841,9.00531229 34.1649819,9.67571037 C33.8839486,9.06654303 33.7410768,8.7650994 33.4569034,8.15750208 C35.2404449,7.46355372 36.1353557,7.10087935 37.9644277,6.3504103 C38.2931225,6.84951225 38.5894194,7.36921171 38.8514884,7.90629905 Z M36.3661485,4.3753265 C34.7772893,5.31733785 33.9922799,5.78834353 32.4411012,6.68796437 C32.009346,6.23736894 31.7926834,6.01442625 31.3562181,5.56854088 C32.844596,4.67049006 33.6029152,4.20733448 35.1242635,3.27003318 C35.5554028,3.6111587 35.9654103,3.97817309 36.3520183,4.36904643 L36.3661485,4.3753265 Z M33.3564222,2.07210875 C32.0313262,3.10204116 31.3750583,3.60915727 30.0876428,4.59826919 L28.8316277,3.81325973 C30.0593825,2.85240815 30.68739,2.36256225 31.9434052,1.36874027 C32.4264445,1.57820127 32.8981048,1.81298327 33.3564222,2.07210875 Z M29.8364398,0.635541439 L27.3353996,3.21037247 L25.956923,2.77076717 L28.3323617,0.297987371 C28.8410478,0.390618488 29.3434538,0.502089831 29.8348698,0.637111458 L29.8364398,0.635541439 Z M26.1798657,0.0389342497 C25.4435268,1.05159645 25.0808525,1.54929245 24.380624,2.52898425 L22.9550469,2.39396263 C23.628585,1.45195128 23.9739891,0.973095506 24.6820677,0.00125379567 C25.1860437,0.00125379567 25.6868798,0.00125379567 26.1845758,0.0389342497 L26.1798657,0.0389342497 Z M22.5688222,0.126855309 C22.0805463,1.06886666 21.8450435,1.5288822 21.386598,2.4410632 C20.8213911,2.48816376 20.5387877,2.51014403 19.9735809,2.56038463 C20.4194663,1.67960402 20.647119,1.23528867 21.1196947,0.327817731 C21.6016906,0.246176747 22.0852564,0.170815839 22.5672522,0.126855309 L22.5688222,0.126855309 Z M19.0331396,0.77841316 C18.7819366,1.61052319 18.6626151,2.01872811 18.4349624,2.82885787 L17.0878862,3.16484192 C17.3139689,2.37983246 17.4317203,1.98104765 17.6797833,1.17091789 C18.1288087,1.02752283 18.5799275,0.897211259 19.0331396,0.779983179 L19.0331396,0.77841316 Z M15.8931018,1.80834557 C15.8098908,2.53840437 15.7706403,2.89950872 15.7046995,3.61229731 L14.4486844,4.08330298 C14.5193352,3.3877846 14.5585857,3.03767038 14.6433667,2.32802183 C15.0547117,2.14171292 15.4686733,1.96639414 15.8852517,1.8020655 L15.8931018,1.80834557 Z M12.9603064,3.16641194 C13.0325273,3.7944195 13.0717778,4.09743315 13.1549888,4.70974053 L12.0182951,5.31105778 C11.9460742,4.70817051 11.9115338,4.40515686 11.847163,3.79284948 C12.2040806,3.58351363 12.5704184,3.37731781 12.9461763,3.17426203 L12.9587364,3.17426203 L12.9603064,3.16641194 Z M10.3980355,4.70974053 C10.5864378,5.23569687 10.683779,5.49474999 10.8768913,6.01599627 L9.86108908,6.70052452 C9.67582684,6.19340841 9.58633577,5.92964523 9.41049365,5.40839895 C9.72973083,5.17184943 10.0573414,4.9389633 10.3933255,4.70974053 L10.3980355,4.70974053 Z M8.05556732,6.49485204 C8.36015099,6.906197 8.51087281,7.11186948 8.8170265,7.52164442 L7.93624588,8.29409372 C7.64422236,7.87803871 7.4982106,7.66608616 7.2077571,7.2547412 C7.48251041,6.99568808 7.76511382,6.74448505 8.05556732,6.49485204 Z M6.0789135,8.3914349 L7.04604516,9.17644436 L6.29086606,10.0148345 C5.91877157,9.68827052 5.7303693,9.52498856 5.3488547,9.1968546 C5.58226418,8.92367131 5.82300042,8.6541514 6.07106341,8.38829486 L6.0789135,8.3914349 Z M4.40370332,10.4073392 L5.54196703,10.9678359 C5.29233402,11.3258003 5.16673251,11.5047824 4.91395946,11.8627467 L3.80238607,11.2645695 C3.9954984,10.974116 4.19332078,10.6883726 4.40370332,10.4057692 L4.40370332,10.4073392 Z M3.02051665,12.5362848 L4.30165209,12.8628488 C4.10225968,13.2427934 4.00177847,13.4343357 3.79767601,13.8158503 L2.53224076,13.4468958 C2.68924266,13.132892 2.84624455,12.8361585 3.02051665,12.5362848 Z M1.94348367,14.706051 L3.33138039,14.8473527 L2.92003544,15.8553048 L1.55725902,15.6716126 C1.67815047,15.3434787 1.80846204,15.0231948 1.94348367,14.706051 Z M1.05485296,17.1678407 L2.56521116,17.0029887 C2.45530984,17.4300338 2.39878916,17.6451264 2.28417777,18.0753116 L0.772249556,18.2009131 C0.860170616,17.8507989 0.95594177,17.5053947 1.05642298,17.1678407 L1.05485296,17.1678407 Z M0.426845394,19.7458117 L2.0455349,19.274806 C1.9874442,19.7222614 1.95604382,19.9436341 1.89795312,20.3910895 L0.261993408,20.8338348 C0.277693597,20.7129434 0.285543691,20.6470026 0.3028139,20.5292512 C0.337354316,20.268628 0.379744827,20.0095749 0.425275375,19.7442417 L0.426845394,19.7458117 Z M0.137961913,22.3583232 L1.83986242,21.5733137 L1.83986242,22.7021573 L0.11284161,23.4541964 C0.11284161,23.089952 0.11284161,22.7241376 0.125401762,22.3551832 L0.137961913,22.3583232 Z M0.238443124,25.1231265 L1.98273414,23.9346222 C2.06594515,24.3836476 2.10833566,24.6050203 2.19154666,25.0493356 L0.412715224,26.2299899 C0.343634391,25.8636521 0.28763705,25.4931276 0.2447232,25.1184165 L0.238443124,25.1231265 Z M0.775389594,27.7921587 L2.51654057,26.2315599 L2.9168954,27.3305731 L1.141204,28.900592 C1.00618238,28.5394877 0.883720899,28.1721033 0.775389594,27.8015788 L0.775389594,27.7921587 Z M1.82887229,30.470611 L3.51036255,28.4578467 L4.13837012,29.4846391 L2.4270495,31.5382238 C2.21771364,31.191773 2.02146128,30.8369487 1.8382924,30.473751 L1.82887229,30.470611 Z M3.46012195,33.0407319 L4.97990026,30.5287017 C5.33315452,30.8945161 5.51056665,31.0813483 5.86539093,31.4455927 C5.23738336,32.4770951 4.92337958,32.9920613 4.30479212,34.0219937 C4.00753521,33.70799 3.72650182,33.3803793 3.46169196,33.0391619 L3.46012195,33.0407319 Z M5.73350934,35.37221 C6.23434537,34.1585854 6.48397838,33.5525581 6.98952447,32.3389335 L8.13877832,33.0846925 C7.63009219,34.3407076 7.37574913,34.9687152 6.867063,36.2137402 C6.47560495,35.9478836 6.10037043,35.6678969 5.74135943,35.37378 L5.73350934,35.37221 Z M8.71654528,37.2970532 C9.04467924,35.8840362 9.20953123,35.1728176 9.53766518,33.7582306 L10.9506822,34.2590666 C10.6241183,35.7238943 10.4608363,36.4570931 10.1358424,37.9187807 C9.64390313,37.7314251 9.17028075,37.5220893 8.71497527,37.2907731 L8.71654528,37.2970532 Z"/>
</svg>
